{
  "addToDefaultIfMissing": true,
  "calendars": [],
  "configDirectory": null,
  "dailyNotes": false,
  "dateFormat": "YYYY-MM-DD",
  "defaultCalendar": null,
  "eventPreview": false,
  "exit": {
    "saving": false,
    "event": false,
    "calendar": false
  },
  "eventFrontmatter": false,
  "parseDates": false,
  "version": {
    "major": 1,
    "minor": 0,
    "patch": 12,
    "beta": null
  },
  "debug": false,
  "askedToMoveFC": false,
  "askedAboutSync": false,
  "syncBehavior": "Ask",
  "inlineEventsTag": null,
  "paths": []
}