{
  "accentColor": "#e69900",
  "cssTheme": "Atom",
  "textFontFamily": "Roboto,Roboto Flex,Ubuntu,Red Hat Text,Red Hat Display",
  "interfaceFontFamily": "Ubuntu,Roboto",
  "monospaceFontFamily": "Red Hat Mono,Maple Mono,Ubuntu",
  "translucency": false,
  "theme": "obsidian",
  "enabledCssSnippets": [
    "line_height",
    "line_height_1.20_corrected",
    "custom-admonitions.1f72a6"
  ]
}