[
  "obsidian-git",
  "cmdr",
  "table-editor-obsidian",
  "colored-text",
  "obsidian-image-toolkit",
  "obsidian-underline",
  "obsidian-5e-statblocks",
  "obsidian-dice-roller",
  "initiative-tracker",
  "image-window",
  "calendarium",
  "obsidian-icon-folder",
  "custom-sort",
  "editor-width-slider",
  "obsidian-admonition",
  "settings-search",
  "obsidian-html-plugin",
  "obsidian-columns",
  "dataview",
  "multi-column-markdown"
]