{
  "userAdmonitions": {
    "question": {
      "type": "question",
      "color": "255, 145, 0",
      "icon": {
        "type": "obsidian",
        "name": "question-mark-glyph"
      },
      "command": false,
      "title": "question",
      "injectColor": true,
      "noTitle": false,
      "copy": true
    },
    "note": {
      "type": "note",
      "color": "0, 163, 186",
      "icon": {
        "name": "pen",
        "type": "font-awesome"
      },
      "command": false,
      "title": "note",
      "injectColor": true,
      "noTitle": false,
      "copy": true
    }
  },
  "syntaxHighlight": false,
  "copyButton": true,
  "version": "10.2.0",
  "autoCollapse": false,
  "defaultCollapseType": "open",
  "injectColor": true,
  "parseTitles": true,
  "dropShadow": false,
  "hideEmpty": false,
  "open": {
    "admonitions": true,
    "icons": true,
    "other": true,
    "advanced": true
  },
  "icons": [],
  "useFontAwesome": true,
  "rpgDownloadedOnce": false,
  "msDocConverted": false,
  "useSnippet": false,
  "snippetPath": "custom-admonitions.1f72a6"
}